{
    "name": "autosave.js",
    "path": "/app/assets/javascripts/autosave.js",
    "size": "2.62 KB",
    "code": "import { parseBoolean } from '~/lib/utils/common_utils';\r\nimport AccessorUtilities from './lib/utils/accessor';\r\n\r\nexport default class Autosave {\r\n  constructor(field, key, fallbackKey, lockVersion) {\r\n    this.field = field;\r\n    this.type = this.field.getAttribute('type');\r\n    this.isLocalStorageAvailable = AccessorUtilities.canUseLocalStorage();\r\n    this.key = Array.isArray(key) ? `autosave/${key.join('/')}` : `autosave/${key}`;\r\n    this.fallbackKey = fallbackKey;\r\n    this.lockVersionKey = `${this.key}/lockVersion`;\r\n    this.lockVersion = lockVersion;\r\n    this.restore();\r\n    this.saveAction = this.save.bind(this);\r\n    // used by app/assets/javascripts/deprecated_notes.js\r\n    this.field.$autosave = this;\r\n    this.field.addEventListener('input', this.saveAction);\r\n  }\r\n\r\n  restore() {\r\n    if (!this.isLocalStorageAvailable) return;\r\n    const text = window.localStorage.getItem(this.key);\r\n    const fallbackText = window.localStorage.getItem(this.fallbackKey);\r\n    const newValue = text || fallbackText;\r\n\r\n    if (newValue == null) return;\r\n\r\n    let originalValue = this.field.value;\r\n    if (this.type === 'checkbox') {\r\n      originalValue = this.field.checked;\r\n      this.field.checked = parseBoolean(newValue);\r\n    } else {\r\n      this.field.value = newValue;\r\n    }\r\n\r\n    if (originalValue === newValue) return;\r\n    this.triggerInputEvents();\r\n  }\r\n\r\n  triggerInputEvents() {\r\n    // trigger events so @input, @change and v-model trigger in Vue components\r\n    const inputEvent = new Event('input', { bubbles: true, cancelable: false });\r\n    const changeEvent = new Event('change', { bubbles: true, cancelable: false });\r\n    this.field.dispatchEvent(inputEvent);\r\n    this.field.dispatchEvent(changeEvent);\r\n  }\r\n\r\n  getSavedLockVersion() {\r\n    if (!this.isLocalStorageAvailable) return undefined;\r\n    return window.localStorage.getItem(this.lockVersionKey);\r\n  }\r\n\r\n  save() {\r\n    const value = this.type === 'checkbox' ? this.field.checked : this.field.value;\r\n\r\n    if (this.isLocalStorageAvailable && value) {\r\n      if (this.fallbackKey) {\r\n        window.localStorage.setItem(this.fallbackKey, value);\r\n      }\r\n      if (this.lockVersion !== undefined) {\r\n        window.localStorage.setItem(this.lockVersionKey, this.lockVersion);\r\n      }\r\n      return window.localStorage.setItem(this.key, value);\r\n    }\r\n\r\n    return this.reset();\r\n  }\r\n\r\n  reset() {\r\n    if (!this.isLocalStorageAvailable) return undefined;\r\n\r\n    window.localStorage.removeItem(this.lockVersionKey);\r\n    window.localStorage.removeItem(this.fallbackKey);\r\n    return window.localStorage.removeItem(this.key);\r\n  }\r\n\r\n  dispose() {\r\n    delete this.field.$autosave;\r\n    this.field.removeEventListener('input', this.saveAction);\r\n  }\r\n}"
}