{
    "id": 17960134,
    "iid": 9597,
    "description": "### Problem to solve\n\nFrom @dosuken123 \n\nIn general, even though a feature branch is several commits behind from `HEAD`, it's unlikely to break a pipeline. But, if it's 100 commits behind, it would, if it's 1000 commits, the chance of breaking pipeline will significantly increase. In addition, we don't have a safe mechanism to check how old master the feature branch is based on. I'd still suggest to take the advantage ourselves, it's simply valuable functionality.\n\n### Target audience\n\n- Delaney, Development Team Lead, https://design.gitlab.com/research/personas#persona-delaney\n\nDelaney wants to keep the downstream branch working so having a policy to prevent merges that need to be tested with a rebase (even if they technically merge) would be helpful.\n\n### Further details\n\nThis will also help keep master green in relation with https://gitlab.com/gitlab-org/gitlab-ee/issues/7380\n\n### Proposal\n\nTBD\n\n### What does success look like, and how can we measure that?\n\nTBD\n\n### What is the type of buyer? \n\nIndividual Contributors (Core)\n\n### Links / references",
    "title": "Rule to prevent merges >x commits behind target",
    "time_estimate": 0,
    "total_time_spent": 0,
    "human_time_estimate": null,
    "human_total_time_spent": null,
    "state": "opened",
    "milestone_id": 610592,
    "updated_by_id": 1786152,
    "created_at": "2019-02-05T08:41:38Z",
    "updated_at": "2023-05-10T12:49:24Z",
    "milestone":
    {
        "id": 610592,
        "iid": 24,
        "group_id": 9970,
        "title": "Awaiting further demand",
        "description": "Indicates that an issue has been triaged, but is not yet on the backlog because it is awaiting further demand from customers.",
        "state": "active",
        "created_at": "2018-08-01T12:23:44.946Z",
        "updated_at": "2018-08-01T12:23:44.946Z",
        "due_date": null,
        "start_date": null,
        "expired": false,
        "web_url": "https://gitlab.com/groups/gitlab-org/-/milestones/24"
    },
    "labels":
    [
        {
            "id": 7156613,
            "title": "Create [DEPRECATED]",
            "color": "#44ad8e",
            "description": "Please use the devops::create label instead of this deprecated label. It is kept for historical issues.",
            "group_id": 9970,
            "project_id": null,
            "template": false,
            "text_color": "#FFFFFF",
            "created_at": "2018-07-18T17:38:57.619Z",
            "updated_at": "2019-08-19T11:51:56.792Z"
        },
        {
            "id": 11736296,
            "title": "Enterprise Edition",
            "color": "#333",
            "description": "Issues and merge requests for GitLab Enterprise Edition",
            "group_id": 9970,
            "project_id": null,
            "template": false,
            "text_color": "#FFFFFF",
            "created_at": "2019-08-12T12:39:25.181Z",
            "updated_at": "2019-09-11T11:03:10.215Z"
        },
        {
            "id": 9335215,
            "title": "Persona: Development Team Lead",
            "color": "#A8D695",
            "description": "Technical Manager, Software Engineering Team Lead, Technical Team Lead, Software Development Director, Development Lead | https://about.gitlab.com/handbook/marketing/product-marketing/roles-personas#delaney-development-team-lead",
            "group_id": 9970,
            "project_id": null,
            "template": false,
            "text_color": "#1F1E24",
            "created_at": "2019-01-11T13:34:35.080Z",
            "updated_at": "2019-02-26T12:15:53.498Z"
        },
        {
            "id": 1890178,
            "title": "[deprecated] Accepting merge requests",
            "color": "#69d100",
            "description": "[deprecated] Please use \"Seeking community contributions\" instead. https://gitlab.com/gitlab-org/community-relations/contributor-success/team-task/-/issues/83",
            "group_id": 9970,
            "project_id": null,
            "template": false,
            "text_color": "#1F1E24",
            "created_at": "2017-04-21T11:34:01.286Z",
            "updated_at": "2023-03-29T14:37:09.103Z"
        },
        {
            "id": 3103452,
            "title": "devops::create",
            "color": "#E44D2A",
            "description": "Issues for the Create stage of the DevOps lifecycle (e.g. Source Code Management, Design Management, Web IDE, Code Review, Gitter)",
            "group_id": 9970,
            "project_id": null,
            "template": false,
            "text_color": "#FFFFFF",
            "created_at": "2017-12-01T19:01:03.585Z",
            "updated_at": "2022-07-04T07:09:55.759Z"
        },
        {
            "id": 14918378,
            "title": "section::dev",
            "color": "#F0AD4E",
            "description": "Issues related to the Dev section",
            "group_id": 9970,
            "project_id": null,
            "template": false,
            "text_color": "#1F1E24",
            "created_at": "2020-05-11T22:11:57.167Z",
            "updated_at": "2020-05-11T22:11:57.167Z"
        },
        {
            "id": 10230929,
            "title": "type::feature",
            "color": "#009966",
            "description": "Any issue/MR that contains work to support the implementation of a feature and/or results in an improvement in the user experience. Read more at https://about.gitlab.com/handbook/engineering/metrics/#work-type-classification",
            "group_id": 9970,
            "project_id": null,
            "template": false,
            "text_color": "#FFFFFF",
            "created_at": "2019-04-09T12:29:58.492Z",
            "updated_at": "2022-03-28T23:33:53.442Z"
        }
    ],
    "lock_version": 1,
    "author_id": 2243533,
    "confidential": false,
    "discussion_locked": null,
    "assignees":
    [],
    "due_date": null,
    "project_id": 278964,
    "moved_to_id": null,
    "duplicated_to_id": null,
    "web_url": "/gitlab-org/gitlab/-/issues/9597",
    "current_user":
    {
        "can_create_note": true,
        "can_create_confidential_note": true,
        "can_update": true,
        "can_set_issue_metadata": true,
        "can_award_emoji": true
    },
    "create_note_path": "/gitlab-org/gitlab/notes?target_id=17960134&target_type=issue",
    "preview_note_path": "/gitlab-org/gitlab/preview_markdown?target_id=9597&target_type=Issue",
    "is_project_archived": false,
    "issue_email_participants":
    [],
    "type": "ISSUE",
    "weight": null
}